<?xml version="1.0" encoding="utf-8"?>
<!-- Generator: Adobe Illustrator 16.0.0, SVG Export Plug-In . SVG Version: 6.00 Build 0)  -->
<!DOCTYPE svg PUBLIC "-//W3C//DTD SVG 1.1//EN" "http://www.w3.org/Graphics/SVG/1.1/DTD/svg11.dtd">
<svg version="1.1" id="Layer_1" xmlns="http://www.w3.org/2000/svg" xmlns:xlink="http://www.w3.org/1999/xlink" x="0px" y="0px"
	 width="12px" height="20px" viewBox="0 0 12 20" enable-background="new 0 0 12 20" xml:space="preserve">
<rect fill-rule="evenodd" clip-rule="evenodd" fill="#242F4D" width="2" height="20"/>
<rect x="5" fill-rule="evenodd" clip-rule="evenodd" fill="#242F4D" width="2" height="20"/>
<rect x="10" fill-rule="evenodd" clip-rule="evenodd" fill="#242F4D" width="2" height="20"/>
</svg>
